processador16bits/simulation/qsim/processador16bits.msim.vcd
$comment
	File created using the following command:
		vcd file processador16bits.msim.vcd -direction
$end
$date
	Sat Jun 22 16:34:47 2024
$end
$version
	ModelSim Version 10.1d
$end
$timescale
	1ps
$end
$scope module processador16bits_vlg_vec_tst $end
$var reg 1 ! clear $end
$var reg 1 " clk $end
$var reg 1 # en_input $end
$var wire 1 $ data_out [15] $end
$var wire 1 % data_out [14] $end
$var wire 1 & data_out [13] $end
$var wire 1 ' data_out [12] $end
$var wire 1 ( data_out [11] $end
$var wire 1 ) data_out [10] $end
$var wire 1 * data_out [9] $end
$var wire 1 + data_out [8] $end
$var wire 1 , data_out [7] $end
$var wire 1 - data_out [6] $end
$var wire 1 . data_out [5] $end
$var wire 1 / data_out [4] $end
$var wire 1 0 data_out [3] $end
$var wire 1 1 data_out [2] $end
$var wire 1 2 data_out [1] $end
$var wire 1 3 data_out [0] $end
$var wire 1 4 sampler $end
$scope module i1 $end
$var wire 1 5 gnd $end
$var wire 1 6 vcc $end
$var wire 1 7 unknown $end
$var tri1 1 8 devclrn $end
$var tri1 1 9 devpor $end
$var tri1 1 : devoe $end
$var wire 1 ; ALU_INST|Add0~0_combout $end
$var wire 1 < REGISTER_BANK_INST|registers[1][2]~regout $end
$var wire 1 = REGISTER_BANK_INST|Mux30~0_combout $end
$var wire 1 > ALU_INST|Add0~5_combout $end
$var wire 1 ? ALU_INST|Result~1_combout $end
$var wire 1 @ REGISTER_BANK_INST|Mux29~0_combout $end
$var wire 1 A MUX3_INST|y[2]~14_combout $end
$var wire 1 B MUX3_INST|y[2]~15_combout $end
$var wire 1 C ALU_INST|Add0~8_combout $end
$var wire 1 D ALU_INST|Add0~11_combout $end
$var wire 1 E REGISTER_BANK_INST|Mux27~0_combout $end
$var wire 1 F REGISTER_BANK_INST|registers[2][6]~regout $end
$var wire 1 G ALU_INST|Add0~17_combout $end
$var wire 1 H ALU_INST|Result~5_combout $end
$var wire 1 I REGISTER_BANK_INST|Mux25~0_combout $end
$var wire 1 J ALU_INST|Add0~23_combout $end
$var wire 1 K MUX3_INST|y[8]~44_combout $end
$var wire 1 L ALU_INST|Add0~26_combout $end
$var wire 1 M REGISTER_BANK_INST|registers[1][10]~regout $end
$var wire 1 N REGISTER_BANK_INST|Mux22~0_combout $end
$var wire 1 O MUX3_INST|y[9]~49_combout $end
$var wire 1 P MUX3_INST|y[9]~50_combout $end
$var wire 1 Q ALU_INST|Add0~29_combout $end
$var wire 1 R REGISTER_BANK_INST|registers[2][11]~regout $end
$var wire 1 S ALU_INST|Add0~32_combout $end
$var wire 1 T ALU_INST|Add0~35_combout $end
$var wire 1 U REGISTER_BANK_INST|registers[2][14]~regout $end
$var wire 1 V ALU_INST|Add0~41_combout $end
$var wire 1 W MUX3_INST|y[15]~84_combout $end
$var wire 1 X clk~combout $end
$var wire 1 Y clk~clkctrl_outclk $end
$var wire 1 Z REGISTER_BANK_INST|registers[1][2]~feeder_combout $end
$var wire 1 [ PC_INST|pc[0]~3_combout $end
$var wire 1 \ clear~combout $end
$var wire 1 ] clear~clkctrl_outclk $end
$var wire 1 ^ PC_INST|pc[1]~1_combout $end
$var wire 1 _ PC_INST|pc[3]~0_combout $end
$var wire 1 ` PC_INST|pc[2]~2_combout $end
$var wire 1 a INSTR_MEM_INST|Mux2~0_combout $end
$var wire 1 b MUX3_INST|y[15]~3_combout $end
$var wire 1 c REGISTER_BANK_INST|registers[2][0]~feeder_combout $end
$var wire 1 d INSTR_MEM_INST|Mux0~0_combout $end
$var wire 1 e INSTR_MEM_INST|Mux7~0_combout $end
$var wire 1 f INSTR_MEM_INST|Mux5~0_combout $end
$var wire 1 g INSTR_MEM_INST|Mux8~0_combout $end
$var wire 1 h MUX1_INST|y[0]~0_combout $end
$var wire 1 i REGISTER_BANK_INST|Decoder1~0_combout $end
$var wire 1 j REGISTER_BANK_INST|registers[2][0]~regout $end
$var wire 1 k REGISTER_BANK_INST|Decoder1~3_combout $end
$var wire 1 l REGISTER_BANK_INST|registers[3][0]~regout $end
$var wire 1 m REGISTER_BANK_INST|Decoder1~2_combout $end
$var wire 1 n REGISTER_BANK_INST|registers[0][0]~regout $end
$var wire 1 o INSTR_MEM_INST|Mux4~0_combout $end
$var wire 1 p REGISTER_BANK_INST|Mux15~0_combout $end
$var wire 1 q REGISTER_BANK_INST|Mux15~1_combout $end
$var wire 1 r REGISTER_BANK_INST|registers[1][0]~feeder_combout $end
$var wire 1 s REGISTER_BANK_INST|Decoder1~1_combout $end
$var wire 1 t REGISTER_BANK_INST|registers[1][0]~regout $end
$var wire 1 u REGISTER_BANK_INST|Mux31~0_combout $end
$var wire 1 v INSTR_MEM_INST|Mux3~0_combout $end
$var wire 1 w MUX3_INST|y[0]~5_combout $end
$var wire 1 x INSTR_MEM_INST|Mux1~0_combout $end
$var wire 1 y ALU_INST|Add0~2_cout $end
$var wire 1 z ALU_INST|Add0~3_combout $end
$var wire 1 { MUX3_INST|y[0]~4_combout $end
$var wire 1 | MUX3_INST|y[0]~0_combout $end
$var wire 1 } MUX3_INST|y[1]~10_combout $end
$var wire 1 ~ MUX3_INST|y[1]~9_combout $end
$var wire 1 !! ALU_INST|Add0~4 $end
$var wire 1 "! ALU_INST|Add0~7 $end
$var wire 1 #! ALU_INST|Add0~9_combout $end
$var wire 1 $! MUX3_INST|y[2]~16_combout $end
$var wire 1 %! MUX3_INST|y[2]~17_combout $end
$var wire 1 &! MUX3_INST|y[2]~18_combout $end
$var wire 1 '! REGISTER_BANK_INST|registers[2][2]~regout $end
$var wire 1 (! REGISTER_BANK_INST|registers[3][2]~regout $end
$var wire 1 )! REGISTER_BANK_INST|registers[0][2]~regout $end
$var wire 1 *! REGISTER_BANK_INST|Mux13~0_combout $end
$var wire 1 +! REGISTER_BANK_INST|Mux13~1_combout $end
$var wire 1 ,! MUX3_INST|y[1]~7_combout $end
$var wire 1 -! MUX3_INST|y[1]~8_combout $end
$var wire 1 .! ALU_INST|Add0~6_combout $end
$var wire 1 /! INSTR_MEM_INST|Mux6~0_combout $end
$var wire 1 0! REGISTER_BANK_INST|registers[0][1]~regout $end
$var wire 1 1! ALU_INST|Result~0_combout $end
$var wire 1 2! MUX3_INST|y[1]~11_combout $end
$var wire 1 3! MUX3_INST|y[1]~12_combout $end
$var wire 1 4! MUX3_INST|y[1]~13_combout $end
$var wire 1 5! REGISTER_BANK_INST|registers[1][1]~feeder_combout $end
$var wire 1 6! REGISTER_BANK_INST|registers[1][1]~regout $end
$var wire 1 7! REGISTER_BANK_INST|registers[3][1]~regout $end
$var wire 1 8! REGISTER_BANK_INST|registers[2][1]~regout $end
$var wire 1 9! REGISTER_BANK_INST|Mux14~0_combout $end
$var wire 1 :! REGISTER_BANK_INST|Mux14~1_combout $end
$var wire 1 ;! MUX3_INST|y[0]~1_combout $end
$var wire 1 <! MUX3_INST|y[0]~2_combout $end
$var wire 1 =! MUX3_INST|y[0]~6_combout $end
$var wire 1 >! REGISTER_BANK_INST|registers[1][3]~regout $end
$var wire 1 ?! REGISTER_BANK_INST|registers[0][3]~regout $end
$var wire 1 @! REGISTER_BANK_INST|registers[3][3]~regout $end
$var wire 1 A! REGISTER_BANK_INST|registers[2][3]~regout $end
$var wire 1 B! REGISTER_BANK_INST|Mux12~0_combout $end
$var wire 1 C! REGISTER_BANK_INST|Mux12~1_combout $end
$var wire 1 D! ALU_INST|Result~3_combout $end
$var wire 1 E! REGISTER_BANK_INST|registers[0][5]~regout $end
$var wire 1 F! ALU_INST|Result~4_combout $end
$var wire 1 G! REGISTER_BANK_INST|registers[1][4]~regout $end
$var wire 1 H! REGISTER_BANK_INST|registers[0][4]~regout $end
$var wire 1 I! ALU_INST|Add0~14_combout $end
$var wire 1 J! ALU_INST|Add0~10 $end
$var wire 1 K! ALU_INST|Add0~13 $end
$var wire 1 L! ALU_INST|Add0~16 $end
$var wire 1 M! ALU_INST|Add0~18_combout $end
$var wire 1 N! MUX3_INST|y[5]~31_combout $end
$var wire 1 O! REGISTER_BANK_INST|Mux26~0_combout $end
$var wire 1 P! MUX3_INST|y[5]~29_combout $end
$var wire 1 Q! MUX3_INST|y[6]~34_combout $end
$var wire 1 R! MUX3_INST|y[6]~35_combout $end
$var wire 1 S! REGISTER_BANK_INST|registers[0][6]~regout $end
$var wire 1 T! REGISTER_BANK_INST|registers[1][6]~regout $end
$var wire 1 U! ALU_INST|Add0~20_combout $end
$var wire 1 V! ALU_INST|Add0~19 $end
$var wire 1 W! ALU_INST|Add0~21_combout $end
$var wire 1 X! MUX3_INST|y[6]~36_combout $end
$var wire 1 Y! MUX3_INST|y[6]~37_combout $end
$var wire 1 Z! MUX3_INST|y[6]~38_combout $end
$var wire 1 [! REGISTER_BANK_INST|registers[3][6]~regout $end
$var wire 1 \! REGISTER_BANK_INST|Mux9~0_combout $end
$var wire 1 ]! REGISTER_BANK_INST|Mux9~1_combout $end
$var wire 1 ^! MUX3_INST|y[5]~30_combout $end
$var wire 1 _! MUX3_INST|y[5]~32_combout $end
$var wire 1 `! MUX3_INST|y[5]~33_combout $end
$var wire 1 a! REGISTER_BANK_INST|registers[1][5]~regout $end
$var wire 1 b! REGISTER_BANK_INST|registers[3][5]~regout $end
$var wire 1 c! REGISTER_BANK_INST|registers[2][5]~regout $end
$var wire 1 d! REGISTER_BANK_INST|Mux10~0_combout $end
$var wire 1 e! REGISTER_BANK_INST|Mux10~1_combout $end
$var wire 1 f! MUX3_INST|y[4]~24_combout $end
$var wire 1 g! MUX3_INST|y[4]~25_combout $end
$var wire 1 h! ALU_INST|Add0~15_combout $end
$var wire 1 i! MUX3_INST|y[4]~26_combout $end
$var wire 1 j! MUX3_INST|y[4]~27_combout $end
$var wire 1 k! MUX3_INST|y[4]~28_combout $end
$var wire 1 l! REGISTER_BANK_INST|registers[2][4]~regout $end
$var wire 1 m! REGISTER_BANK_INST|registers[3][4]~regout $end
$var wire 1 n! REGISTER_BANK_INST|Mux11~0_combout $end
$var wire 1 o! REGISTER_BANK_INST|Mux11~1_combout $end
$var wire 1 p! REGISTER_BANK_INST|Mux28~0_combout $end
$var wire 1 q! MUX3_INST|y[3]~19_combout $end
$var wire 1 r! MUX3_INST|y[3]~20_combout $end
$var wire 1 s! ALU_INST|Result~2_combout $end
$var wire 1 t! ALU_INST|Add0~12_combout $end
$var wire 1 u! MUX3_INST|y[3]~21_combout $end
$var wire 1 v! MUX3_INST|y[3]~22_combout $end
$var wire 1 w! MUX3_INST|y[3]~23_combout $end
$var wire 1 x! REGISTER_BANK_INST|registers[0][7]~regout $end
$var wire 1 y! REGISTER_BANK_INST|registers[1][7]~regout $end
$var wire 1 z! REGISTER_BANK_INST|registers[3][7]~regout $end
$var wire 1 {! REGISTER_BANK_INST|registers[2][7]~regout $end
$var wire 1 |! REGISTER_BANK_INST|Mux8~0_combout $end
$var wire 1 }! REGISTER_BANK_INST|Mux8~1_combout $end
$var wire 1 ~! ALU_INST|Result~7_combout $end
$var wire 1 !" REGISTER_BANK_INST|registers[1][8]~regout $end
$var wire 1 "" REGISTER_BANK_INST|Mux23~0_combout $end
$var wire 1 #" REGISTER_BANK_INST|registers[1][9]~regout $end
$var wire 1 $" REGISTER_BANK_INST|registers[0][9]~regout $end
$var wire 1 %" ALU_INST|Result~9_combout $end
$var wire 1 &" ALU_INST|Add0~22 $end
$var wire 1 '" ALU_INST|Add0~25 $end
$var wire 1 (" ALU_INST|Add0~28 $end
$var wire 1 )" ALU_INST|Add0~30_combout $end
$var wire 1 *" ALU_INST|Result~8_combout $end
$var wire 1 +" MUX3_INST|y[9]~51_combout $end
$var wire 1 ," MUX3_INST|y[9]~52_combout $end
$var wire 1 -" MUX3_INST|y[9]~53_combout $end
$var wire 1 ." REGISTER_BANK_INST|registers[3][9]~regout $end
$var wire 1 /" REGISTER_BANK_INST|registers[2][9]~regout $end
$var wire 1 0" REGISTER_BANK_INST|Mux6~0_combout $end
$var wire 1 1" REGISTER_BANK_INST|Mux6~1_combout $end
$var wire 1 2" MUX3_INST|y[8]~45_combout $end
$var wire 1 3" ALU_INST|Add0~27_combout $end
$var wire 1 4" MUX3_INST|y[8]~46_combout $end
$var wire 1 5" MUX3_INST|y[8]~47_combout $end
$var wire 1 6" MUX3_INST|y[8]~48_combout $end
$var wire 1 7" REGISTER_BANK_INST|registers[3][8]~feeder_combout $end
$var wire 1 8" REGISTER_BANK_INST|registers[3][8]~regout $end
$var wire 1 9" REGISTER_BANK_INST|registers[2][8]~regout $end
$var wire 1 :" REGISTER_BANK_INST|registers[0][8]~regout $end
$var wire 1 ;" REGISTER_BANK_INST|Mux7~0_combout $end
$var wire 1 <" REGISTER_BANK_INST|Mux7~1_combout $end
$var wire 1 =" REGISTER_BANK_INST|Mux24~0_combout $end
$var wire 1 >" MUX3_INST|y[7]~39_combout $end
$var wire 1 ?" MUX3_INST|y[7]~40_combout $end
$var wire 1 @" ALU_INST|Add0~24_combout $end
$var wire 1 A" ALU_INST|Result~6_combout $end
$var wire 1 B" MUX3_INST|y[7]~41_combout $end
$var wire 1 C" MUX3_INST|y[7]~42_combout $end
$var wire 1 D" MUX3_INST|y[7]~43_combout $end
$var wire 1 E" REGISTER_BANK_INST|registers[3][10]~feeder_combout $end
$var wire 1 F" REGISTER_BANK_INST|registers[3][10]~regout $end
$var wire 1 G" REGISTER_BANK_INST|registers[2][10]~regout $end
$var wire 1 H" REGISTER_BANK_INST|registers[0][10]~regout $end
$var wire 1 I" REGISTER_BANK_INST|Mux5~0_combout $end
$var wire 1 J" REGISTER_BANK_INST|Mux5~1_combout $end
$var wire 1 K" REGISTER_BANK_INST|Mux21~0_combout $end
$var wire 1 L" ALU_INST|Add0~31 $end
$var wire 1 M" ALU_INST|Add0~33_combout $end
$var wire 1 N" REGISTER_BANK_INST|registers[1][12]~regout $end
$var wire 1 O" REGISTER_BANK_INST|registers[0][12]~regout $end
$var wire 1 P" REGISTER_BANK_INST|Mux19~0_combout $end
$var wire 1 Q" MUX3_INST|y[12]~64_combout $end
$var wire 1 R" MUX3_INST|y[12]~65_combout $end
$var wire 1 S" ALU_INST|Add0~38_combout $end
$var wire 1 T" ALU_INST|Add0~34 $end
$var wire 1 U" ALU_INST|Add0~37 $end
$var wire 1 V" ALU_INST|Add0~39_combout $end
$var wire 1 W" MUX3_INST|y[12]~66_combout $end
$var wire 1 X" MUX3_INST|y[12]~67_combout $end
$var wire 1 Y" MUX3_INST|y[12]~68_combout $end
$var wire 1 Z" REGISTER_BANK_INST|registers[3][12]~regout $end
$var wire 1 [" REGISTER_BANK_INST|registers[2][12]~regout $end
$var wire 1 \" REGISTER_BANK_INST|Mux3~0_combout $end
$var wire 1 ]" REGISTER_BANK_INST|Mux3~1_combout $end
$var wire 1 ^" REGISTER_BANK_INST|registers[0][11]~feeder_combout $end
$var wire 1 _" REGISTER_BANK_INST|registers[0][11]~regout $end
$var wire 1 `" REGISTER_BANK_INST|Mux20~0_combout $end
$var wire 1 a" MUX3_INST|y[11]~59_combout $end
$var wire 1 b" MUX3_INST|y[11]~60_combout $end
$var wire 1 c" ALU_INST|Result~11_combout $end
$var wire 1 d" ALU_INST|Add0~36_combout $end
$var wire 1 e" REGISTER_BANK_INST|registers[1][11]~regout $end
$var wire 1 f" ALU_INST|Result~10_combout $end
$var wire 1 g" MUX3_INST|y[11]~61_combout $end
$var wire 1 h" MUX3_INST|y[11]~62_combout $end
$var wire 1 i" MUX3_INST|y[11]~63_combout $end
$var wire 1 j" REGISTER_BANK_INST|registers[3][11]~regout $end
$var wire 1 k" REGISTER_BANK_INST|Mux4~0_combout $end
$var wire 1 l" REGISTER_BANK_INST|Mux4~1_combout $end
$var wire 1 m" MUX3_INST|y[10]~54_combout $end
$var wire 1 n" MUX3_INST|y[10]~55_combout $end
$var wire 1 o" MUX3_INST|y[10]~56_combout $end
$var wire 1 p" MUX3_INST|y[10]~57_combout $end
$var wire 1 q" MUX3_INST|y[10]~58_combout $end
$var wire 1 r" REGISTER_BANK_INST|registers[1][13]~regout $end
$var wire 1 s" REGISTER_BANK_INST|registers[0][13]~regout $end
$var wire 1 t" MUX3_INST|y[13]~69_combout $end
$var wire 1 u" REGISTER_BANK_INST|registers[3][13]~regout $end
$var wire 1 v" REGISTER_BANK_INST|registers[2][13]~regout $end
$var wire 1 w" REGISTER_BANK_INST|Mux2~0_combout $end
$var wire 1 x" REGISTER_BANK_INST|Mux2~1_combout $end
$var wire 1 y" MUX3_INST|y[13]~70_combout $end
$var wire 1 z" MUX3_INST|y[14]~77_combout $end
$var wire 1 {" REGISTER_BANK_INST|registers[1][14]~regout $end
$var wire 1 |" REGISTER_BANK_INST|registers[0][14]~regout $end
$var wire 1 }" ALU_INST|Add0~44_combout $end
$var wire 1 ~" ALU_INST|Add0~40 $end
$var wire 1 !# ALU_INST|Add0~43 $end
$var wire 1 "# ALU_INST|Add0~45_combout $end
$var wire 1 ## MUX3_INST|y[15]~86_combout $end
$var wire 1 $# MUX3_INST|y[15]~85_combout $end
$var wire 1 %# MUX3_INST|y[15]~83_combout $end
$var wire 1 &# MUX3_INST|y[15]~87_combout $end
$var wire 1 '# REGISTER_BANK_INST|registers[0][15]~regout $end
$var wire 1 (# ALU_INST|Add0~47_combout $end
$var wire 1 )# ALU_INST|Add0~46 $end
$var wire 1 *# ALU_INST|Add0~48_combout $end
$var wire 1 +# MUX3_INST|y[15]~88_combout $end
$var wire 1 ,# REGISTER_BANK_INST|registers[1][15]~regout $end
$var wire 1 -# REGISTER_BANK_INST|registers[3][15]~regout $end
$var wire 1 .# REGISTER_BANK_INST|registers[2][15]~regout $end
$var wire 1 /# REGISTER_BANK_INST|Mux0~0_combout $end
$var wire 1 0# REGISTER_BANK_INST|Mux0~1_combout $end
$var wire 1 1# MUX3_INST|y[14]~79_combout $end
$var wire 1 2# MUX3_INST|y[14]~76_combout $end
$var wire 1 3# MUX3_INST|y[14]~78_combout $end
$var wire 1 4# MUX3_INST|y[14]~80_combout $end
$var wire 1 5# MUX3_INST|y[14]~81_combout $end
$var wire 1 6# MUX3_INST|y[14]~82_combout $end
$var wire 1 7# REGISTER_BANK_INST|registers[3][14]~regout $end
$var wire 1 8# REGISTER_BANK_INST|Mux1~0_combout $end
$var wire 1 9# REGISTER_BANK_INST|Mux1~1_combout $end
$var wire 1 :# MUX3_INST|y[13]~72_combout $end
$var wire 1 ;# MUX3_INST|y[13]~71_combout $end
$var wire 1 <# MUX3_INST|y[13]~73_combout $end
$var wire 1 =# ALU_INST|Add0~42_combout $end
$var wire 1 ># MUX3_INST|y[13]~74_combout $end
$var wire 1 ?# MUX3_INST|y[13]~75_combout $end
$var wire 1 @# PC_INST|pc [3] $end
$var wire 1 A# PC_INST|pc [2] $end
$var wire 1 B# PC_INST|pc [1] $end
$var wire 1 C# PC_INST|pc [0] $end
$var wire 1 D# INSTR_MEM_INST|instruction [15] $end
$var wire 1 E# INSTR_MEM_INST|instruction [14] $end
$var wire 1 F# INSTR_MEM_INST|instruction [13] $end
$var wire 1 G# INSTR_MEM_INST|instruction [12] $end
$var wire 1 H# INSTR_MEM_INST|instruction [11] $end
$var wire 1 I# INSTR_MEM_INST|instruction [10] $end
$var wire 1 J# INSTR_MEM_INST|instruction [9] $end
$var wire 1 K# INSTR_MEM_INST|instruction [8] $end
$var wire 1 L# INSTR_MEM_INST|instruction [7] $end
$var wire 1 M# INSTR_MEM_INST|instruction [6] $end
$var wire 1 N# INSTR_MEM_INST|instruction [5] $end
$var wire 1 O# INSTR_MEM_INST|instruction [4] $end
$var wire 1 P# INSTR_MEM_INST|instruction [3] $end
$var wire 1 Q# INSTR_MEM_INST|instruction [2] $end
$var wire 1 R# INSTR_MEM_INST|instruction [1] $end
$var wire 1 S# INSTR_MEM_INST|instruction [0] $end
$upscope $end
$upscope $end
$enddefinitions $end
#0
$dumpvars
0!
0"
1#
03
02
01
00
0/
0.
0-
0,
0+
0*
0)
0(
0'
0&
0%
0$
x4
05
16
x7
18
19
1:
0;
0<
0=
0>
0?
0@
1A
1B
0C
0D
0E
0F
0G
0H
0I
0J
1K
0L
0M
0N
1O
1P
0Q
0R
0S
0T
0U
0V
0W
0X
0Y
0Z
1[
0\
0]
0^
0_
0`
0a
1b
0c
1d
0e
0f
1g
0h
0i
0j
0k
0l
1m
0n
0o
0p
0q
0r
0s
0t
0u
1v
0w
0x
0y
0z
0{
0|
0}
0~
1!!
0"!
0#!
0$!
0%!
0&!
0'!
0(!
0)!
0*!
0+!
1,!
1-!
0.!
0/!
00!
01!
02!
03!
04!
05!
06!
07!
08!
09!
0:!
0;!
0<!
0=!
0>!
0?!
0@!
0A!
0B!
0C!
0D!
0E!
0F!
0G!
0H!
0I!
1J!
0K!
1L!
0M!
0N!
0O!
1P!
1Q!
1R!
0S!
0T!
0U!
0V!
0W!
0X!
0Y!
0Z!
0[!
0\!
0]!
1^!
0_!
0`!
0a!
0b!
0c!
0d!
0e!
1f!
1g!
0h!
0i!
0j!
0k!
0l!
0m!
0n!
0o!
0p!
1q!
1r!
0s!
0t!
0u!
0v!
0w!
0x!
0y!
0z!
0{!
0|!
0}!
0~!
0!"
0""
0#"
0$"
0%"
1&"
0'"
1("
0)"
0*"
0+"
0,"
0-"
0."
0/"
00"
01"
12"
03"
04"
05"
06"
07"
08"
09"
0:"
0;"
0<"
0="
1>"
1?"
0@"
0A"
0B"
0C"
0D"
0E"
0F"
0G"
0H"
0I"
0J"
0K"
0L"
0M"
0N"
0O"
0P"
1Q"
1R"
0S"
1T"
0U"
0V"
0W"
0X"
0Y"
0Z"
0["
0\"
0]"
0^"
0_"
0`"
1a"
1b"
0c"
0d"
0e"
0f"
0g"
0h"
0i"
0j"
0k"
0l"
1m"
1n"
0o"
0p"
0q"
0r"
0s"
0t"
0u"
0v"
0w"
0x"
1y"
0z"
0{"
0|"
0}"
1~"
0!#
0"#
0##
0$#
0%#
0&#
0'#
0(#
1)#
0*#
0+#
0,#
0-#
0.#
0/#
00#
01#
02#
03#
04#
05#
06#
07#
08#
09#
0:#
1;#
1<#
0=#
0>#
0?#
0C#
0B#
0A#
0@#
0S#
0R#
zQ#
zP#
0O#
zN#
zM#
zL#
0K#
0J#
zI#
zH#
0G#
0F#
0E#
0D#
$end
#5000
1"
1X
1Y
04
1G#
1S#
1D#
1C#
0;#
11#
1(#
1}"
0m"
0a"
1S"
0Q"
0>"
0q!
0f!
1U!
0Q!
0P!
1I!
0,!
1y
1V
1T
1S
1Q
0O
1L
0K
1J
1G
1D
1C
0A
1>
1;
1<!
0y"
0b
0g
1f
1e
1^
0[
0<#
14#
1*#
1"#
0n"
0b"
1V"
0R"
0?"
0r!
0g!
1W!
0R!
0^!
1h!
0-!
0!!
1=#
1d"
1M"
1)"
0P
13"
02"
1@"
1M!
1t!
1#!
0B
1.!
1=!
15#
1o"
1W"
1i!
1X!
1"!
0.!
1>#
1g"
1+"
14"
1B"
1N!
1u!
1$!
12!
1r
1c
13
1p"
1X"
1j!
1Y!
0J!
0#!
02!
1h"
1,"
15"
1C"
1_!
1v!
1%!
13!
1K!
0t!
0$!
03!
0L!
0h!
0u!
0%!
1V!
0M!
0i!
0v!
0&"
0W!
0N!
0j!
1'"
0@"
0X!
0_!
0("
03"
0B"
0Y!
1L"
0)"
04"
0C"
0T"
0M"
0+"
05"
1U"
0d"
0o"
0,"
0~"
0V"
0g"
0p"
1!#
0=#
0W"
0h"
0)#
0"#
0>#
0X"
0*#
05#
#10000
0"
0X
0Y
14
#15000
1"
1X
1Y
04
1n
0S#
1K#
1R#
1B#
0C#
1u
0;
0<!
1h
14!
1/!
0v
0f
0d
1[
1|
1!!
1z
0=!
1s
0m
15!
12
1;!
0"!
1.!
1{
0r
0c
03
1J!
1#!
12!
0K!
1t!
1$!
13!
1L!
1h!
1u!
1%!
0V!
1M!
1i!
1v!
1&"
1W!
1N!
1j!
0'"
1@"
1X!
1_!
1("
13"
1B"
1Y!
0L"
1)"
14"
1C"
1T"
1M"
1+"
15"
0U"
1d"
1o"
1,"
1~"
1V"
1g"
1p"
0!#
1=#
1W"
1h"
1)#
1"#
1>#
1X"
1*#
15#
#20000
0"
0X
0Y
14
#25000
1"
1X
1Y
04
16!
1O#
0G#
0K#
0D#
1C#
1?
1=
0(#
0}"
0S"
1k!
0U!
0I!
0u
0V
0T
0S
0Q
0L
0J
0G
0D
0C
1;#
01#
1m"
1a"
1Q"
1>"
1q!
1f!
1Q!
1P!
1,!
0|
0y
1O
1K
1A
1p
0h
16#
1y"
1q"
1i"
1Y"
1D"
16"
1-"
1w!
1`!
1Z!
1&!
0s
1k
1b
0/!
1o
0e
1d
1`
0^
0[
0*#
0"#
0V"
0W!
0h!
0=#
0d"
0M"
0)"
03"
0@"
0M!
0t!
0#!
1<#
04#
1n"
1b"
1R"
1?"
1r!
1g!
1R!
1^!
1-!
0;!
0z
1P
12"
1B
1q
0k
1i
1?#
1E"
1^"
17"
1Z
1+#
1=!
1/
1%
1)
1(
1'
1,
1+
1*
10
1.
1-
11
0+#
05#
0W"
0X!
0i!
0>#
0g"
0o"
0+"
04"
0B"
0N!
0u!
0$!
0{
1z
1r
1c
1&
1$
13
06#
0X"
0Y!
0j!
0?#
0h"
0p"
0,"
05"
0C"
0_!
0v!
0%!
0=!
1{
0$
0Y"
0Z!
0k!
0i"
0q"
0-"
06"
0D"
0`!
0w!
0&!
0r
0c
1=!
0%
0&
03
0^"
0E"
07"
0Z
1r
1c
0'
0-
0/
0(
0)
0*
0+
0,
0.
00
01
13
#30000
0"
0X
0Y
14
#35000
1"
1X
1Y
04
18!
0O#
1J#
1j
0R#
1D#
1A#
0B#
0C#
19!
1u
0?
0>
0=
1;
0q
0p
04!
0y"
0b
1v
0o
1f
1e
0d
1g
1[
1:!
0.!
1q
05!
0=!
02
0,!
1.!
1?
02!
1|
0!!
0z
0r
0c
03
0-!
12!
03!
1;!
1"!
0.!
0{
13!
1#!
02!
1$!
03!
1%!
#40000
0"
0X
0Y
14
#45000
1"
1X
1Y
04
08!
1G#
0J#
0j
1S#
1K#
1R#
0D#
1C#
09!
0;#
11#
1(#
1}"
0m"
0a"
1S"
0Q"
0>"
0q!
0f!
1U!
0Q!
0P!
1I!
1,!
1y
1V
1T
1S
1Q
0O
1L
0K
1J
1G
1D
1C
0A
1>
0;
0q
1h
0:!
1y"
1&!
1b
1/!
1o
0g
0f
1a
1^
0[
1:!
0<#
14#
1*#
1"#
0n"
0b"
1V"
0R"
0?"
0r!
0g!
1W!
0R!
0^!
1h!
1-!
1!!
1z
1=#
1d"
1M"
1)"
0P
13"
02"
1@"
1M!
1t!
0J!
0#!
0B
1k
0i
0,!
0?
1Z
11
1,!
1?
15#
1+#
1o"
1W"
1i!
1X!
1{
1>#
1g"
1+"
14"
1B"
1N!
1u!
1K!
0t!
0$!
0-!
1-!
16#
1p"
1X"
1j!
1Y!
1=!
1?#
1h"
1,"
15"
1C"
1_!
1v!
0L!
0h!
0u!
0%!
1$
1q"
1Y"
1k!
1Z!
1r
1c
1i"
1-"
16"
1D"
1`!
1w!
1V!
0M!
0i!
0v!
0&!
1%
13
1&
1E"
1^"
17"
0&"
0W!
0N!
0j!
0w!
0Z
1)
1'
1/
1-
1(
1*
1+
1,
1.
10
01
1'"
0@"
0X!
0_!
0k!
00
0("
03"
0B"
0Y!
0`!
0/
1L"
0)"
04"
0C"
0Z!
0.
0T"
0M"
0+"
05"
0D"
0-
1U"
0d"
0o"
0,"
06"
0,
0~"
0V"
0g"
0p"
0-"
07"
0+
1!#
0=#
0W"
0h"
0q"
0*
0)#
0"#
0>#
0X"
0i"
0E"
0)
0*#
05#
0?#
0Y"
0^"
0(
0+#
06#
0&
0'
0$
0%
#50000
0"
0X
0Y
14
#55000
1"
1X
1Y
04
1O#
1J#
1l
0S#
0K#
1F#
1B#
0C#
11!
0u
0>
1=
1;
1<!
0h
0:!
01#
1%#
1m"
1a"
1Q"
1>"
1q!
1f!
1Q!
1P!
0-!
1~
1}
0b
1O
1K
1A
1x
0v
0a
1[
12!
0|
0"!
0!!
0z
0k
1i
01!
04#
15#
13#
1o"
1g"
1W"
1B"
14"
1+"
1u!
1i!
1X!
1N!
1$!
1:#
0y"
13!
0;!
1J!
1#!
1.!
0{
05#
1<#
14!
0<!
0K!
1t!
15!
0=!
1L!
1h!
12
0r
0c
0V!
1M!
03
1&"
1W!
0'"
1@"
1("
13"
0L"
1)"
1T"
1M"
0U"
1d"
1~"
1V"
0!#
1=#
1)#
1"#
1*#
#60000
0"
0X
0Y
14
#65000
1"
1X
1Y
04
18!
1E#
0G#
0F#
1C#
19!
0%#
1##
0}
1w
0(#
0}"
0S"
0U!
0I!
0y
0V
0T
0S
0Q
0L
0J
0G
0D
0C
1>
0;
0<#
14#
1n"
1b"
1R"
1?"
12"
1r!
1g!
1^!
1R!
1-!
1b
1P
1B
0/!
1v
0`
1_
0^
0[
1:!
1&#
1>#
1;#
0:#
1y"
1p"
0g"
1X"
0B"
15"
0+"
0u!
1j!
1Y!
0N!
02!
1%!
1=!
0*#
0"#
0V"
0W!
0h!
1!!
0=#
0d"
0M"
0)"
03"
0@"
0M!
0t!
0#!
1"!
0.!
15#
1;!
11!
0,!
1+#
1<#
1q"
1h"
1Y"
1C"
16"
1,"
1v!
1k!
1Z!
1_!
1&!
1r
1c
0>#
1#!
16#
13
0-!
1?#
1E"
1i"
1D"
17"
1-"
1w!
1`!
1Z
1$
1)
1'
1+
1/
1-
11
1%
03!
1^"
1&
1(
1,
1*
10
1.
04!
05!
02
#70000
0"
0X
0Y
14
