somador_4bits/simulation/qsim/somador_4bits.msim.vcd
$comment
	File created using the following command:
		vcd file somador_4bits.msim.vcd -direction
$end
$date
	Wed Apr 10 21:09:41 2024
$end
$version
	ModelSim Version 10.1d
$end
$timescale
	1ps
$end
$scope module somador_4bits_vlg_vec_tst $end
$var reg 1 ! Cin $end
$var reg 4 " X [3:0] $end
$var reg 4 # Y [3:0] $end
$var wire 1 $ Cout $end
$var wire 1 % S [3] $end
$var wire 1 & S [2] $end
$var wire 1 ' S [1] $end
$var wire 1 ( S [0] $end
$var wire 1 ) sampler $end
$scope module i1 $end
$var wire 1 * gnd $end
$var wire 1 + vcc $end
$var wire 1 , unknown $end
$var tri1 1 - devclrn $end
$var tri1 1 . devpor $end
$var tri1 1 / devoe $end
$var wire 1 0 Cin~combout $end
$var wire 1 1 inst3|inst2~1_combout $end
$var wire 1 2 inst2|inst2~0_combout $end
$var wire 1 3 inst1|inst2~0_combout $end
$var wire 1 4 inst1|inst2~1_combout $end
$var wire 1 5 inst|inst2~0_combout $end
$var wire 1 6 inst|inst5~combout $end
$var wire 1 7 inst1|inst5~0_combout $end
$var wire 1 8 inst3|inst2~0_combout $end
$var wire 1 9 inst2|inst5~combout $end
$var wire 1 : inst3|inst5~0_combout $end
$var wire 1 ; X~combout [3] $end
$var wire 1 < X~combout [2] $end
$var wire 1 = X~combout [1] $end
$var wire 1 > X~combout [0] $end
$var wire 1 ? Y~combout [3] $end
$var wire 1 @ Y~combout [2] $end
$var wire 1 A Y~combout [1] $end
$var wire 1 B Y~combout [0] $end
$upscope $end
$upscope $end
$enddefinitions $end
#0
$dumpvars
0!
b1101 "
b1100 #
1$
1(
0'
0&
1%
x)
0*
1+
x,
1-
1.
1/
00
01
02
03
14
15
16
07
08
09
1:
1>
0=
1<
1;
0B
0A
1@
1?
$end
#5000
b1111 "
b1110 "
b1000 #
0@
0>
1=
0)
17
04
0:
19
06
1&
0(
1'
0%
#10000
b110 "
b10 "
b0 #
b11 "
b100 #
1@
0?
1>
0<
0;
1)
05
1:
0$
1(
#15000
b101 #
b1 "
b101 "
0=
1<
1B
0)
09
07
14
0:
11
16
19
0'
0&
0(
1%
1'
#20000
b111 #
b1101 "
b1111 #
b1011 #
b1010 #
1;
0B
1A
0@
1?
1)
15
1:
01
09
12
17
04
19
02
07
13
06
1$
1(
0'
1&
17
03
16
1'
0&
0%
06
1&
1%
0%
#25000
b1100 "
b100 "
b10 #
b110 #
1@
0?
0>
0;
0)
07
14
05
0:
16
0&
0$
0(
1%
#30000
b110 "
b111 "
1>
1=
1)
1:
09
12
17
13
1(
0'
1&
#35000
b11 "
b111 #
b11 #
b1 "
b0 "
1B
0@
0>
0=
0<
0)
04
19
02
03
06
07
1'
0%
0&
#40000
b1 #
b1001 #
b1101 #
b10 "
1=
0A
1@
1?
1)
17
16
1&
1%
#45000
b1010 "
b1110 "
b1100 #
b1111 "
b1000 #
0B
0@
1>
1<
1;
0)
06
15
0%
1$
#50000
b0 #
b1101 "
b101 "
b1 #
b100 "
b101 #
0>
0=
0;
1B
1@
0?
1)
09
05
07
14
16
0'
0$
0&
1%
#55000
b111 #
b0 "
b10 "
b110 #
b11 "
1>
1=
0<
0B
1A
0)
12
17
04
07
14
06
1&
16
0&
0%
1%
#60000
b1110 #
b111 "
b101 "
b1111 #
b100 "
0>
0=
1<
1B
1?
1)
19
02
17
13
06
15
07
03
1'
1&
0%
1$
0&
#65000
b1101 #
b101 #
b0 "
b10 "
1=
0<
0A
0?
0)
17
04
16
05
06
1&
1%
0$
0%
#70000
b100 #
b1100 #
0B
1?
1)
0:
16
0(
1%
#75000
b1000 #
b1010 #
b0 "
b1011 #
b11 #
0=
1B
1A
0@
0?
0)
1:
07
06
1(
0&
0%
#80000
b1000 "
b1001 "
b111 #
b101 #
0A
1@
1>
1;
1)
09
17
0:
11
16
19
0'
1&
0(
1%
1'
#85000
b1101 "
b1101 #
b1001 #
0@
1?
1<
0)
06
15
0%
1$
#90000
b1111 "
b1000 #
b111 "
b110 "
b1010 #
b10 #
0B
1A
0?
0>
1=
0;
1)
01
12
05
09
07
13
0$
16
0'
0&
1%
#95000
b10 "
b110 #
b0 "
b1000 "
b100 #
0A
1@
0=
0<
1;
0)
02
14
03
06
15
17
04
0%
1$
16
05
1&
1%
0$
#100000
b101 #
b1100 "
1<
1B
1)
07
14
1:
06
15
0&
1(
0%
1$
#105000
b1101 "
b1101 #
b1111 #
b1001 "
1A
1?
1>
0<
0)
19
16
0:
11
17
04
09
12
06
1'
1%
0(
1&
07
14
0'
0%
16
0&
1%
#110000
b1011 #
b1011 "
b11 "
b1001 #
1=
0;
0A
0@
1)
06
17
04
16
05
0%
1&
1%
0$
#115000
b10 "
b1 #
b0 "
b11 #
1A
0?
0>
0=
0)
06
1:
01
19
02
0%
1(
07
1'
0&
#120000
b111 #
b1000 "
b1001 "
b1011 "
b101 #
1>
1=
1;
0A
1@
1)
0:
11
16
17
09
12
0(
1%
1&
07
14
0'
06
15
0&
0%
1$
#125000
b1111 "
b1101 #
b1001 #
b1101 "
0@
1?
0=
1<
0)
04
16
19
02
13
17
03
1%
1'
06
1&
0%
#130000
b101 "
b100 "
0>
0;
1)
1:
01
16
05
09
1(
1%
0$
0'
#135000
b1 #
b101 #
b1100 "
b1101 "
1>
1;
1@
0?
0)
0:
11
07
14
19
06
15
0(
0&
1'
0%
1$
#140000
b1001 "
b1101 #
1?
0<
1)
16
17
04
06
1%
1&
0%
#145000
b1100 #
b1110 #
b1010 #
b1 "
b101 "
b10 #
1<
0;
0B
1A
0@
0?
0)
05
1:
01
09
12
19
02
07
13
0$
1(
0'
17
03
16
1'
0&
06
1&
1%
0%
#150000
b100 "
b11 #
b1 #
b1001 #
1B
0A
1?
0>
1)
09
16
0'
1%
#155000
b101 "
b1000 #
b0 #
0B
0?
1>
0)
06
0%
#160000
b111 "
b10 #
b110 "
b11 #
1B
1A
0>
1=
1)
12
07
13
16
0&
1%
#165000
b10 #
0B
0)
0:
0(
#170000
b110 #
b100 "
b100 #
0=
0A
1@
1)
02
17
14
07
03
1&
0&
#175000
b1100 "
b1100 #
1?
1;
0)
15
1$
#180000
b1101 #
b1110 "
b110 "
b101 #
1=
0;
1B
0?
1)
19
05
1:
1'
0$
1(
#185000
b10 "
b11 "
b111 #
b1 "
b1001 "
b1111 #
1A
1?
1>
0=
0<
1;
0)
15
0:
11
17
04
09
12
06
1$
0(
1&
07
14
0'
0%
16
0&
1%
#190000
b1011 #
b1000 "
b0 "
b11 #
0>
0;
0@
0?
1)
1:
01
05
17
04
19
02
06
1(
0$
1&
07
1'
0%
0&
#195000
b100 "
b1011 #
1?
1<
0)
16
17
1%
1&
#200000
b110 "
b111 "
b1111 "
b1011 "
b11 #
0?
1>
1=
0<
1;
1)
0:
11
09
12
07
19
17
0(
0'
0&
1'
1&
#205000
b10 #
b0 #
b1001 "
b1000 "
b0 "
b100 "
0>
0=
1<
0;
0B
0A
0)
01
02
07
13
06
09
17
03
16
0&
0%
06
0'
1&
1%
0%
#210000
b10 #
b110 "
b10 "
1=
0<
1A
1)
12
07
17
0&
1&
#215000
b1010 #
b1011 #
b11 "
b111 "
1>
1<
1B
1?
0)
11
07
13
16
19
06
15
0&
1%
1'
0%
1$
#220000
b1111 "
b1001 #
b1101 "
b1 #
0A
0?
0=
1;
1)
02
17
03
16
05
1&
1%
0$
#225000
b101 #
b101 "
b111 #
b111 "
1=
0;
1A
1@
0)
12
06
07
14
17
13
16
0%
0&
1&
1%
#230000
b110 "
b1111 #
b100 "
1?
0>
0=
1)
06
15
1:
01
09
19
02
0%
1$
1(
0'
07
03
1'
0&
#235000
b0 "
b1011 #
b1001 #
b10 "
0A
0@
1=
0<
0)
04
16
05
1%
0$
#240000
b1000 #
b110 "
1<
0B
1)
17
0:
1&
0(
#245000
b111 "
b1100 #
b1110 #
b101 "
b1 "
1A
1@
1>
0=
0<
0)
1:
1(
#250000
b110 #
b0 "
b10 #
b10 "
0>
1=
0@
0?
1)
0:
09
12
07
06
17
0(
0'
0&
0%
1&
#255000
b11 #
b1 #
b110 "
b111 "
b101 "
1>
0=
1<
1B
0A
0)
11
02
07
13
19
17
03
16
0&
06
1'
1&
1%
0%
#260000
b1101 "
b1001 #
b1101 #
b1001 "
b1000 "
1@
1?
0>
0<
1;
1)
15
1:
01
09
1$
1(
0'
#265000
b1100 #
b1010 "
b10 "
b110 "
b111 "
1>
1=
1<
0;
0B
0)
19
07
14
16
05
06
15
1'
0&
1%
0$
0%
1$
#275000
b1110 #
b110 #
b111 #
b101 "
b1101 "
b1001 "
0=
0<
1;
1B
1A
0?
1)
17
04
0:
11
16
05
09
12
1&
0(
07
14
1%
0$
0'
06
15
0&
0%
1$
#280000
b1000 "
b1111 #
b0 "
b100 "
1?
0>
1<
0;
0)
1:
01
17
13
19
02
1(
1&
07
03
1'
0&
#285000
b1101 #
b110 "
b111 "
b101 #
b1111 "
1>
1=
1;
0A
0?
1)
0:
11
09
12
0(
17
13
0'
1&
#290000
b111 #
b1110 "
0>
1A
0)
1:
01
19
09
1(
1'
0'
#295000
b1111 #
b110 "
b111 "
1>
0;
1?
1)
0:
11
19
0(
1'
#300000
b1011 #
b11 "
b1001 #
b1 #
b1011 "
0<
1;
0A
0@
0?
0)
04
03
09
16
05
0'
1%
0$
#305000
b1010 "
0>
1)
1:
01
19
02
1(
07
1'
0&
#310000
b0 #
b1000 "
b100 #
b1100 "
b1100 #
b100 "
b101 "
1>
0=
1<
0;
0B
1@
1?
0)
09
14
06
15
0'
0%
1$
#315000
b111 "
b1000 #
b0 #
b110 "
0@
0?
0>
1=
1)
17
04
16
05
0:
19
06
1&
1%
0$
0(
1'
0%
#320000
b10 "
b1010 "
b100 #
b1011 "
1@
1>
0<
1;
0)
1:
16
1(
1%
#325000
b110 #
b111 #
b1001 "
b1111 #
b1101 "
0=
1<
1B
1A
1?
1)
07
14
0:
11
06
15
16
09
12
0&
0(
0%
1$
17
13
1%
0'
1&
#330000
b101 "
b1110 #
b111 "
b110 #
b11 "
0B
0?
1=
0<
0;
0)
1:
01
05
19
07
03
09
1(
0$
1'
0&
0'
#335000
b10 #
b10 "
b11 #
b0 "
b100 "
0>
0=
1<
1B
0@
1)
19
02
04
13
17
03
1'
06
1&
0%
#340000
b1 #
b1001 #
b1101 #
b101 "
b1100 #
b111 "
1>
1=
0B
0A
1@
1?
0)
07
14
16
06
15
0&
1%
0%
1$
#345000
b11 "
b1000 #
b1001 #
b1 "
1B
0@
0=
0<
1)
0:
11
04
09
19
16
05
0(
0'
1'
1%
0$
#350000
b0 "
b1101 #
b1100 #
b10 "
0B
1@
0>
1=
0)
01
17
09
12
19
02
07
14
1&
0'
17
04
06
15
1'
0&
16
05
1&
0%
1$
1%
0$
#355000
b1110 #
b110 #
b110 "
b111 #
1<
1B
1A
0?
1)
07
14
1:
09
12
06
16
17
13
0&
1(
0'
0%
1%
1&
#360000
b1110 "
b1111 "
b101 #
b1101 #
0A
1?
1>
1;
0)
19
02
15
0:
11
07
03
09
12
1'
1$
0(
17
13
0&
0'
1&
#365000
b1001 #
b1101 "
b1011 #
0=
1A
0@
1)
07
04
0&
#370000
b1010 #
b10 #
b1111 "
1=
0B
0?
0)
19
1:
01
06
09
1'
1(
0%
0'
#375000
b1011 "
b11 "
b110 #
b100 #
b101 #
b1 "
1B
0A
1@
0=
0<
0;
1)
0:
11
02
14
03
16
05
19
17
04
0(
1%
0$
06
1'
1&
0%
#380000
b1001 "
b1 #
b11 #
b1011 "
1A
0@
1=
1;
0)
12
07
16
17
0&
1%
1&
#385000
b11 "
b111 #
b101 #
0A
1@
0;
1)
09
07
14
06
16
0'
0&
0%
1%
#390000
b10 "
b110 "
b100 #
b100 "
b1100 "
0B
0>
0=
1<
1;
0)
01
19
02
17
13
06
15
09
07
03
1'
1&
0%
1$
0'
0&
#395000
b1100 #
b1110 #
b1000 "
b1010 "
b10 "
1=
0<
0;
1A
1?
1)
12
17
04
07
14
16
05
1&
06
15
0&
1%
0$
0%
1$
#400000
b11 "
b1111 #
b111 #
b101 #
b1 "
1B
0A
0?
1>
0=
0)
11
02
16
05
19
17
04
1%
0$
06
1'
1&
0%
#405000
b1 #
b101 "
b100 "
b110 "
0>
1=
1<
0@
1)
1:
01
09
12
19
02
07
13
1(
0'
17
03
16
1'
0&
06
1&
1%
0%
#410000
b0 #
b1000 #
b1100 #
b100 "
0=
0B
1@
1?
0)
09
0:
07
14
16
06
15
0'
0(
0&
1%
0%
1$
#415000
b1100 "
b1110 #
b1000 "
b110 #
b10 #
b1010 "
1A
0@
0?
1=
0<
1;
1)
12
04
17
16
05
1&
1%
0$
#420000
b10 "
b110 "
b1010 #
b1110 #
1@
1?
1<
0;
0)
14
13
06
15
0%
1$
#425000
b1111 #
b1101 #
b10 "
b1001 #
0<
1B
0A
0@
1)
04
03
1:
19
02
16
05
07
1(
1'
1%
0$
0&
#430000
b1010 "
b1000 #
b1110 "
0B
1<
1;
0)
0:
17
06
15
0(
1&
0%
1$
#435000
b1100 "
b1000 "
0=
0<
1)
09
07
0'
0&
#440000
b1001 "
b0 #
b100 #
b1011 "
b1111 "
1@
0?
1>
1=
1<
0)
14
16
05
1:
19
06
15
1%
0$
1(
1'
0%
1$
#445000
b111 "
b110 "
b100 "
0>
0=
0;
1)
0:
09
16
05
0(
0'
1%
0$
#450000
b101 #
b0 "
b1000 "
b1001 "
b1011 "
1>
1=
0<
1;
1B
0)
11
19
17
04
06
15
09
12
16
05
1'
1&
0%
1$
07
14
0'
1%
0$
06
15
0&
0%
1$
#455000
b1101 #
b1001 #
b1000 #
b11 "
b10 "
0>
0;
0B
0@
1?
1)
01
17
04
19
02
16
05
1&
07
1'
1%
0$
0&
#460000
b1010 #
b110 "
b100 "
b1110 #
b1100 "
b1101 "
1>
0=
1<
1;
1A
1@
0)
1:
14
06
15
16
1(
0%
1$
1%
#465000
b110 #
b1111 "
1=
0?
1)
09
12
06
17
13
0'
0%
1&
#470000
b100 #
b111 "
b1100 #
0;
0A
1?
0)
19
02
07
03
1'
0&
#475000
b11 "
b1000 #
b10 "
b0 "
b1010 #
b1000 "
b10 #
1A
0@
0?
0>
0=
0<
1;
1)
04
0:
16
05
0(
1%
0$
#480000
b11 #
b111 #
b1001 "
b1011 "
b11 "
1>
1=
0;
1B
1@
0)
11
09
12
06
17
19
07
14
0'
0%
1&
16
1'
0&
1%
#485000
b101 #
b1101 #
b10 "
0>
0A
1?
1)
1:
01
09
06
15
19
02
1(
0'
0%
1$
17
04
1'
16
05
1&
1%
0$
#490000
b1100 #
b0 "
b1000 "
b100 #
0=
1;
0B
0?
0)
09
0:
0'
0(
#495000
b1100 "
b101 #
1B
1<
1)
1:
07
14
06
15
1(
0&
0%
1$
#500000
b1 #
b11 #
b100 "
b1011 #
b1010 #
0;
0B
1A
0@
1?
0)
0:
19
17
04
16
05
0(
1'
1&
1%
0$
#505000
b101 "
b111 "
b11 "
b10 #
0?
1>
1=
0<
1)
06
1:
09
12
07
17
0%
1(
0'
0&
1&
#510000
b1011 "
1;
0)
16
1%
#515000
b110 #
b100 #
b1100 #
b11 "
0;
0A
1@
1?
1)
19
02
07
14
17
04
06
15
1'
0&
16
05
1&
0%
1$
1%
0$
#520000
b1101 #
b10 "
b0 "
b1001 #
b1011 #
0>
0=
1B
1A
0@
0)
07
0&
#525000
b100 "
b1100 "
b1010 #
b1101 "
0B
1>
1<
1;
1)
17
06
15
1&
0%
1$
#530000
b10 #
b1111 "
b110 #
b100 #
b1011 "
b101 #
1=
0<
1B
0A
1@
0?
0)
0:
11
16
05
09
12
0(
1%
0$
07
14
0'
06
15
0&
0%
1$
#535000
b1001 "
b111 #
1A
0=
1)
#540000
b1 "
b110 #
0B
0;
0)
1:
01
16
05
19
02
1(
1%
0$
17
04
1'
06
1&
0%
#545000
b0 "
b10 #
b1000 "
b11 #
1B
0@
0>
1;
1)
07
16
0&
1%
#550000
b1 #
b1001 "
b101 #
b100 #
1>
0B
0A
1@
0)
09
17
0'
1&
#555000
b1100 #
b1101 "
b1111 "
b111 "
1=
1<
0;
1?
1)
19
07
14
06
15
1'
0&
0%
1$
#560000
b1101 #
b11 "
b1 "
b1001 "
0=
0<
1;
1B
0)
09
17
04
16
0:
11
06
19
0'
1&
1%
0(
0%
1'
#565000
b1111 #
b1101 "
1<
1A
1)
07
14
09
12
16
17
13
0&
0'
1%
1&
#570000
b1110 #
b101 "
b1100 #
b1 "
0<
0;
0B
0A
0)
07
03
06
1:
01
19
02
09
17
04
0&
0%
1(
1'
16
05
0'
1&
1%
0$
#575000
b11 "
b1110 #
b111 "
1A
1=
1<
1)
12
07
14
17
13
06
15
0&
1&
0%
1$
#580000
b110 "
b1111 #
b100 "
b1101 #
b0 "
1B
0A
0>
0=
0<
0)
02
07
03
17
04
0&
16
05
1&
1%
0$
#585000
b1001 #
b1011 #
b100 "
1<
1A
0@
1)
19
1'
#590000
b11 #
b1100 "
b111 #
1;
1@
0?
0)
07
14
06
15
0&
0%
1$
#595000
b1101 "
b1001 "
b11 #
0@
1>
0<
1)
04
0:
11
16
05
09
12
0(
17
1%
0$
0'
1&
#600000
b10 #
b0 #
b1 "
b100 #
0;
0B
0A
1@
0)
06
1:
01
19
02
07
14
09
17
04
16
0%
1(
1'
0&
06
0'
1&
1%
0%
#605000
b1100 #
b0 "
b100 "
b1101 #
b1100 "
b1001 #
0>
1<
1;
1B
0@
1?
1)
15
1$
#610000
b1000 "
b1000 #
b1100 #
0B
1@
0<
0)
0:
0(
#615000
b1110 #
b110 #
b1100 "
1<
1A
0?
1)
07
14
19
16
05
06
15
0&
1'
1%
0$
0%
1$
#620000
b1110 "
b1111 "
b111 "
b111 #
b11 #
b1 #
b1001 #
1B
0A
0@
1?
1>
1=
0;
0)
11
17
04
09
12
16
05
1&
07
13
0'
1%
0$
06
15
0&
0%
1$
#625000
b110 "
b1110 "
b1 #
0?
0>
1;
1)
1:
01
19
02
1(
17
03
1'
16
05
1&
1%
0$
#630000
b1010 "
b11 #
b10 "
b1011 #
1A
1?
0<
0;
0)
09
12
07
17
0'
0&
1&
#635000
b0 "
b1111 #
b1 "
b1001 "
b111 #
1@
0?
1>
0=
1;
1)
07
14
0:
11
19
02
06
15
09
12
17
04
0&
0(
1'
07
14
16
05
0%
1$
0'
1&
06
15
0&
1%
0$
0%
1$
#640000
b101 #
b1 "
b1101 #
0;
0A
1?
0)
19
02
17
04
1'
16
05
1&
1%
0$
#645000
b101 "
b1001 #
0@
1<
1)
#650000
b1000 #
b111 "
b1010 #
b10 #
b11 "
1=
0<
0B
1A
0?
0)
12
07
1:
01
06
17
09
0&
1(
0%
1&
0'
#655000
b10 "
b110 #
b111 #
b101 #
b110 "
1B
0A
1@
0>
1<
1)
19
02
14
13
07
03
16
1'
0&
1%
#660000
b1110 "
1;
0)
06
15
0%
1$
#665000
b1101 #
b1111 #
b110 "
0;
1A
1?
1)
09
12
17
13
0'
1&
#670000
b10 "
b111 #
0?
0<
0)
16
05
07
03
1%
0$
0&
#675000
b0 "
b1 "
b11 #
b1 #
0A
0@
1>
0=
1)
02
17
04
0:
11
07
06
19
1&
0(
0&
0%
1'
#680000
b0 #
b1001 "
b1101 "
b1000 #
b1111 "
b1110 "
b1010 #
0>
1=
1<
1;
0B
1A
1?
0)
01
12
17
15
09
07
13
1&
1$
16
0'
0&
1%
#685000
b1011 #
b1010 "
b1011 "
b1001 #
1>
0<
1B
0A
1)
11
17
03
19
02
09
12
06
07
1&
1'
17
0'
0%
0&
1&
#690000
b1101 #
b101 #
b1001 "
b1101 "
b1100 "
b111 #
0>
0=
1<
1A
1@
0?
0)
1:
01
14
13
16
05
19
02
06
15
1(
1%
0$
07
03
1'
0%
1$
0&
#695000
b110 #
b1110 "
1=
0B
1)
09
12
0:
17
13
0'
0(
1&
#700000
b10 #
b1010 "
b1011 "
b0 #
b1001 "
1>
0=
0<
0A
0@
0)
1:
02
04
03
07
16
05
1(
0&
1%
0$
#705000
b1 "
b1 #
b11 "
1B
1=
0;
1)
0:
11
19
06
09
12
0(
1'
0%
17
0'
1&
#710000
b1001 #
b1000 #
b1 "
0=
0B
1?
0)
19
02
1:
01
16
07
09
1'
1(
1%
0&
0'
#715000
b1100 #
b100 #
b11 "
1=
1@
0?
1)
19
17
06
1'
1&
0%
#720000
b111 "
b110 #
b1110 #
b101 "
1A
1?
0=
1<
0)
16
07
14
06
15
1%
0&
0%
1$
#725000
b1010 #
b1000 #
b0 #
0A
0@
0?
1)
09
17
04
16
05
06
0'
1&
1%
0$
0%
#730000
b100 "
b1100 "
b1110 "
b100 #
b110 #
1A
1@
0>
1=
1;
0)
12
07
14
0:
16
17
13
06
15
0&
0(
1%
1&
0%
1$
#735000
b111 #
b1111 #
b1011 #
1B
0@
1?
1)
1:
07
04
16
1(
0&
1%
#740000
b1111 "
b1010 #
b1110 #
0B
1@
1>
0)
17
14
1&
#745000
b1101 "
b1100 "
0>
0=
1)
0:
19
02
07
03
0(
1'
0&
#750000
b1100 #
b1101 #
b1001 #
b1110 "
1=
1B
0A
0@
0)
1:
17
04
06
1(
1&
0%
#755000
b1010 "
b1 #
b1011 "
b11 #
b111 #
b1001 "
1A
1@
0?
1>
0=
0<
1)
16
05
0:
11
09
12
1%
0$
0(
07
14
0'
06
15
0&
0%
1$
#760000
b1 "
b0 "
b101 #
b1 #
0A
0@
0>
0;
0)
19
02
17
04
1:
01
16
05
07
06
09
1'
1&
1(
1%
0$
0&
0%
0'
#765000
b0 #
b1 "
1>
0B
1)
#770000
b1001 "
b1000 "
0>
1;
0)
0:
16
0(
1%
#775000
b1100 "
b1000 #
b1110 "
b1010 #
b1011 #
b110 "
1B
1A
1?
1=
1<
0;
1)
1:
12
17
07
13
1(
1&
06
15
0&
0%
1$
#780000
b1111 #
b111 "
b1101 #
b1111 "
1>
1;
0A
1@
0)
0:
11
16
19
02
17
14
09
12
07
03
0(
1%
1'
1&
17
13
0'
0&
1&
#785000
b1011 "
b101 #
b1001 "
b100 #
b0 #
b10 #
0B
1A
0@
0?
0=
0<
1)
1:
01
04
06
03
19
02
16
05
1(
0%
07
1'
1%
0$
0&
#790000
b1 "
b101 "
b1010 #
1?
1<
0;
0)
17
1&
#795000
b100 "
b1011 #
b1111 #
b111 #
1B
1@
0?
0>
1)
07
14
06
16
0&
0%
1%
#800000
b110 "
b101 #
b1110 "
b1010 "
b1011 "
0A
1>
1=
0<
1;
0)
0:
11
17
04
06
15
09
12
16
05
0(
1&
0%
1$
07
14
0'
1%
0$
06
15
0&
0%
1$
#805000
b1101 #
b1001 "
b1111 #
0=
1A
1?
1)
16
1%
#810000
b1011 #
b1011 "
b1001 #
1=
0A
0@
0)
17
04
06
1&
0%
#815000
b1000 #
b1010 "
b1100 #
b1110 #
0>
0B
1A
1@
1)
01
19
07
14
09
16
1'
0&
0'
1%
#820000
b10 "
b110 "
b110 #
b100 "
b111 #
b101 "
b101 #
1B
0A
0?
1>
0=
1<
0;
0)
11
02
05
17
13
19
07
03
0$
1&
1'
0&
#825000
b1 "
b11 "
1=
0<
1)
09
12
17
04
07
14
06
0'
1&
16
0&
0%
1%
#830000
b1011 "
b1101 #
b1010 "
b1111 #
1A
1?
0>
1;
0)
19
15
1:
01
09
1'
1$
1(
0'
#835000
b1011 #
b1110 "
b110 "
b11 #
b111 "
b1 #
1>
1<
0;
0A
0@
0?
1)
0:
11
04
13
05
19
02
09
12
17
03
0(
0$
1'
07
13
06
0'
1&
16
0&
0%
1%
#840000
b0 #
b101 "
b1 "
b1000 #
b0 "
b1010 #
0>
0=
0<
0B
1A
1?
0)
01
17
03
06
15
19
02
16
05
1&
0%
1$
07
1'
1%
0$
0&
#845000
b1110 #
b1111 #
b100 "
b1101 #
1<
1B
0A
1@
1)
14
1:
09
06
15
1(
0'
0%
1$
#850000
b101 "
b1 "
b1111 #
1A
1>
0<
0)
19
0:
11
17
04
09
12
16
05
1'
0(
1&
07
14
0'
1%
0$
06
15
0&
0%
1$
#855000
b1001 "
b1011 "
b111 #
b1010 "
b1110 "
0?
0>
1=
1<
1;
1)
1:
01
19
17
13
09
1(
1'
1&
0'
#860000
b11 #
b1 #
b110 "
b100 "
b1001 #
b0 "
0=
0<
0;
0A
0@
1?
0)
02
04
03
07
16
05
0&
1%
0$
#865000
b1 "
b1011 #
b11 "
1A
1>
1=
1)
12
0:
11
17
19
0(
1&
1'
#870000
b1010 #
b1110 #
b111 "
b101 "
0=
1<
0B
1@
0)
09
14
13
1:
01
06
15
19
02
0'
1(
07
03
0%
1$
1'
0&
#875000
b110 #
b100 #
b101 #
b1 #
b1 "
0<
1B
0A
0@
0?
1)
04
0:
11
09
16
05
06
19
0(
0'
1%
0$
0%
1'
#880000
b1001 "
b1000 "
b1001 #
b1101 #
b1100 "
1@
1?
0>
1<
1;
0)
14
15
1:
01
16
09
1$
1(
1%
0'
#885000
b1111 #
b1110 #
b100 "
b110 #
b10 #
0;
0B
1A
0@
0?
1)
05
0:
19
17
04
06
0$
0(
1'
1&
0%
#890000
b0 "
b1010 #
1?
0<
0)
16
07
1%
0&
#895000
b10 "
b11 "
b1011 #
b1011 "
b1111 #
1B
1@
1>
1=
1;
1)
11
17
09
12
06
15
19
07
14
1&
0'
0%
1$
16
1'
0&
1%
#900000
b1101 #
b101 #
b1001 "
b1000 "
b0 "
0>
0=
0;
0A
0?
0)
1:
01
02
05
09
17
04
1(
0$
06
0'
1&
0%
#905000
b100 #
b0 #
b10 #
b1010 #
b10 "
b11 "
b1011 "
1>
1=
1;
0B
1A
0@
1?
1)
12
15
07
17
1$
0&
1&
#910000
b1011 #
b1001 #
b1001 "
0=
1B
0A
0)
02
0:
11
07
19
0(
0&
1'
#915000
b1 #
b1000 "
b0 "
b11 #
0>
0;
1A
0?
1)
1:
01
05
09
12
19
02
17
1(
0$
0'
07
1'
1&
0&
#920000
b100 "
b111 #
b110 "
b1110 "
b101 #
0A
1@
1=
1<
1;
0)
14
16
06
15
1%
0%
1$
#925000
b1101 #
b1010 "
b1001 #
b1000 "
b0 "
0=
0<
0;
0@
1?
1)
09
04
16
05
0'
1%
0$
#930000
b1 "
b101 "
b1101 #
b1101 "
1@
1>
1<
1;
0)
14
0:
11
06
15
16
19
0(
0%
1$
1%
1'
#935000
b1100 #
b1110 #
b1111 "
b1110 "
b1010 "
b1010 #
0>
1=
0<
0B
1A
0@
1)
01
12
04
09
17
06
0'
1&
0%
#940000
b1000 "
b1100 "
b1110 #
1@
0=
1<
0)
14
19
02
13
16
07
03
1'
1%
0&
#945000
b110 #
b111 #
b101 #
b1101 "
b1111 "
1>
1=
1B
0A
0?
1)
11
06
09
12
0%
17
13
0'
1&
#950000
b1101 #
b1101 "
0=
1?
0)
19
02
16
07
03
1'
1%
0&
#960000
b1001 "
0<
1)
17
04
06
1&
0%
#965000
b1 "
b1001 #
b1011 #
b0 "
b11 #
b10 "
1A
0@
0?
0>
1=
0;
0)
12
07
05
1:
01
17
09
0&
0$
1(
1&
0'
#970000
b110 "
b111 #
b101 #
b1101 #
0A
1@
1?
1<
1)
19
02
14
16
13
07
03
06
15
1'
1%
0&
0%
1$
#975000
b10 "
b1001 #
b1011 #
b11 #
1A
0@
0?
0<
0)
09
12
04
16
05
17
06
0'
1%
0$
1&
0%
#980000
b1010 "
b1011 "
b1001 "
b1101 "
1>
0=
1<
1;
1)
0:
11
19
02
07
13
16
09
12
17
03
06
15
0(
1'
0&
1%
07
13
16
05
0'
1&
0%
1$
06
15
0&
1%
0$
0%
1$
#985000
b10 #
b1010 #
b1111 "
b1011 "
1=
0<
0B
1?
0)
19
17
03
1:
01
16
06
09
1'
1&
1(
1%
0%
0'
#990000
b1011 #
b1111 "
1<
1B
1)
07
13
0:
11
16
19
0&
0(
1%
1'
#995000
b111 "
b1010 #
0B
0;
0)
1:
01
06
09
1(
0%
0'
